PCBNEW-LibModule-V1  
# encoding utf-8
Units mm
$INDEX
DIP762W50P254L977H451Q8
$EndINDEX
$MODULE DIP762W50P254L977H451Q8
Po 0 0 0 15 00000000 00000000 ~~
Li DIP762W50P254L977H451Q8
Cd 
Sc 00000000
At STD
Op 0 0 0
.SolderMask 0
.SolderPaste 0
T0 -0.2601 -6.03752 1.00042 1.00042 0 0.05 N V 21 "DIP762W50P254L977H451Q8"
T1 -0.12505 5.86731 1.00039 1.00039 0 0.05 N V 21 "VAL**"
DS -2.8 -4.9 2.8 -4.9 0.2 21
DS 2.8 -4.9 2.8 4.9 0.2 21
DS 2.8 4.9 -2.8 4.9 0.2 21
DS -2.8 4.9 -2.8 -4.9 0.2 21
DS -4.75 -5.25 4.75 -5.25 0.05 26
DS 4.75 -5.25 4.75 5.25 0.05 26
DS 4.75 5.25 -4.75 5.25 0.05 26
DS -4.75 5.25 -4.75 -5.25 0.05 26
DC -1.8 -3.9 -1.4 -3.9 0.2 21
DC -3.9 -5 -3.75858 -5 0.2 21
DC -1.8 -3.9 -1.57639 -3.9 0.2 21
DC -1.7 -3.9 -1.5 -3.9 0.2 21
DC -1.9 -3.9 -1.75858 -3.9 0.2 21
$PAD
Sh "1" R 1.35 1.35 0 0 0
Dr 0.85 0 0
At STD N 00C0FFFF
.SolderMask 0
Ne 0 ""
Po -3.81 -3.81
$EndPAD
$PAD
Sh "2" C 1.35 1.35 0 0 0
Dr 0.85 0 0
At STD N 00C0FFFF
.SolderMask 0
Ne 0 ""
Po -3.81 -1.27
$EndPAD
$PAD
Sh "3" C 1.35 1.35 0 0 0
Dr 0.85 0 0
At STD N 00C0FFFF
.SolderMask 0
Ne 0 ""
Po -3.81 1.27
$EndPAD
$PAD
Sh "4" C 1.35 1.35 0 0 0
Dr 0.85 0 0
At STD N 00C0FFFF
.SolderMask 0
Ne 0 ""
Po -3.81 3.81
$EndPAD
$PAD
Sh "5" C 1.35 1.35 0 0 1800
Dr 0.85 0 0
At STD N 00C0FFFF
.SolderMask 0
Ne 0 ""
Po 3.81 3.81
$EndPAD
$PAD
Sh "6" C 1.35 1.35 0 0 1800
Dr 0.85 0 0
At STD N 00C0FFFF
.SolderMask 0
Ne 0 ""
Po 3.81 1.27
$EndPAD
$PAD
Sh "7" C 1.35 1.35 0 0 1800
Dr 0.85 0 0
At STD N 00C0FFFF
.SolderMask 0
Ne 0 ""
Po 3.81 -1.27
$EndPAD
$PAD
Sh "8" C 1.35 1.35 0 0 1800
Dr 0.85 0 0
At STD N 00C0FFFF
.SolderMask 0
Ne 0 ""
Po 3.81 -3.81
$EndPAD
$EndMODULE DIP762W50P254L977H451Q8
