PCBNEW-LibModule-V1  
# encoding utf-8
Units mm
$INDEX
MEGA2560PRO-EMBED
$EndINDEX
$MODULE MEGA2560PRO-EMBED
Po 0 0 0 15 00000000 00000000 ~~
Li MEGA2560PRO-EMBED
Cd <H1>Robotdyn</H1>Robotdyn Mega 2560 PRO (Embed)<BR><BR><A HREF="https://robotdyn.com/mega-2560-pro-embed-ch340g-atmega2560-16au.html">https://robotdyn.com/mega-2560-pro-embed-ch340g-atmega2560-16au.html</A>
Sc 00000000
At STD
Op 0 0 0
.SolderMask 0
.SolderPaste 0
T0 -33.0708 -19.3548 0.48 0.48 0 0.05 N V 21 "MEGA2560PRO-EMBED"
T1 -32.766 -18.0848 0.48 0.48 0 0.05 N V 21 "VAL**"
DS 19.2024 20.32 19.2024 -17.6784 0.127 21
DS -34.798 -17.6784 19.2024 -17.6784 0.127 21
DS -34.798 -8.6868 -34.798 -17.6784 0.127 21
DS -34.798 -8.6868 -33.2994 -8.6868 0.127 21
DS -33.2994 0.5842 -33.2994 -8.6868 0.127 21
DS -34.798 0.5842 -33.2994 0.5842 0.127 21
DS -34.798 20.32 -34.798 0.5842 0.127 21
DS -34.798 20.32 19.2024 20.32 0.127 21
T2 14.425500 18.218400 1 1 0 .05 N V 21 "D29"
T2 -0.848131 18.218400 1 1 0 .05 N V 21 "D17"
T2 -26.155700 18.218400 1 1 0 .05 N V 21 "3V3"
T2 11.901300 18.218400 1 1 0 .05 N V 21 "D27"
T2 9.362870 18.218400 1 1 0 .05 N V 21 "D25"
T2 4.248100 18.218400 1 1 0 .05 N V 21 "D21"
T2 1.784040 18.218400 1 1 0 .05 N V 21 "D19"
T2 -5.933340 18.218400 1 1 0 .05 N V 21 "D13"
T2 -8.448830 18.218400 1 1 0 .05 N V 21 "D11"
T2 -10.696700 18.218400 1 1 0 .05 N V 21 "D9"
T2 -15.754100 18.215000 1 1 0 .05 N V 21 "D5"
T2 -23.562100 18.228300 1 1 0 .05 N V 21 "RST"
T2 -18.266300 18.218400 1 1 0 .05 N V 21 "D3"
T2 -20.743000 18.215000 1 1 0 .05 N V 21 "TX"
T2 -28.406700 18.215000 1 1 0 .05 N V 21 "5V"
T2 -31.258800 18.228300 1 1 0 .05 N V 21 "GND"
T2 17.006400 18.218400 1 1 0 .05 N V 21 "D31"
T2 6.821930 18.218400 1 1 0 .05 N V 21 "D23"
T2 -3.410940 18.218400 1 1 0 .05 N V 21 "D15"
T2 -13.219100 18.215000 1 1 0 .05 N V 21 "D7"
T2 -33.783800 18.215000 1 1 0 .05 N V 21 "VIN"
T2 -3.326050 15.588200 1 1 0 .05 N V 21 "D14"
T2 17.058700 15.588200 1 1 0 .05 N V 21 "D30"
T2 9.410340 15.588200 1 1 0 .05 N V 21 "D24"
T2 1.677390 15.588200 1 1 0 .05 N V 21 "D18"
T2 14.432200 15.588200 1 1 0 .05 N V 21 "D28"
T2 11.919900 15.588200 1 1 0 .05 N V 21 "D26"
T2 6.800060 15.588200 1 1 0 .05 N V 21 "D22"
T2 4.265020 15.588200 1 1 0 .05 N V 21 "D20"
T2 -0.758088 15.588200 1 1 0 .05 N V 21 "D16"
T2 -5.851520 15.588200 1 1 0 .05 N V 21 "D12"
T2 -8.435390 15.588200 1 1 0 .05 N V 21 "D10"
T2 -10.715300 15.715200 1 1 0 .05 N V 21 "D8"
T2 -18.314000 15.588200 1 1 0 .05 N V 21 "D2"
T2 -20.779700 15.584800 1 1 0 .05 N V 21 "RX"
T2 -23.862800 15.584800 1 1 0 .05 N V 21 "AREF"
T2 -13.148000 15.715200 1 1 0 .05 N V 21 "D6"
T2 -15.826800 15.711800 1 1 0 .05 N V 21 "D4"
T2 16.366000 -7.211720 1 1 0 .05 N V 21 "D52"
T2 13.846000 -7.211720 1 1 0 .05 N V 21 "D53"
T2 16.366000 -9.562470 1 1 0 .05 N V 21 "D50"
T2 16.366000 -12.134400 1 1 0 .05 N V 21 "D48"
T2 13.846000 -9.556950 1 1 0 .05 N V 21 "D51"
T2 13.846000 -12.134400 1 1 0 .05 N V 21 "D49"
T2 16.924700 -15.038700 1 1 0 .05 N V 21 "D46"
T2 -0.910972 -15.038700 1 1 0 .05 N V 21 "D32"
T2 -8.488710 -15.038700 1 1 0 .05 N V 21 "A10"
T2 16.962400 -12.440600 1 1 0 .05 N V 21 "D47"
T2 -0.950519 -12.437300 1 1 0 .05 N V 21 "D33"
T2 -8.560990 -12.437300 1 1 0 .05 N V 21 "A11"
T2 11.889600 -15.038700 1 1 0 .05 N V 21 "D42"
T2 9.169040 -15.038700 1 1 0 .05 N V 21 "D40"
T2 6.767550 -15.038700 1 1 0 .05 N V 21 "D38"
T2 4.264810 -15.038700 1 1 0 .05 N V 21 "D36"
T2 1.623570 -15.038700 1 1 0 .05 N V 21 "D34"
T2 -3.296390 -15.038700 1 1 0 .05 N V 21 "A14"
T2 -5.810450 -15.038700 1 1 0 .05 N V 21 "A12"
T2 11.868300 -12.437300 1 1 0 .05 N V 21 "D43"
T2 9.276310 -12.437300 1 1 0 .05 N V 21 "D41"
T2 6.702630 -12.437300 1 1 0 .05 N V 21 "D39"
T2 4.253150 -12.437300 1 1 0 .05 N V 21 "D37"
T2 1.625400 -12.437300 1 1 0 .05 N V 21 "D35"
T2 -3.422190 -12.437300 1 1 0 .05 N V 21 "A15"
T2 -6.058210 -12.437300 1 1 0 .05 N V 21 "A13"
T2 14.424200 -15.042100 1 1 0 .05 N V 21 "D44"
T2 14.427400 -12.440600 1 1 0 .05 N V 21 "D45"
T2 -10.587000 -12.437300 1 1 0 .05 N V 21 "A9"
T2 -10.589800 -15.038700 1 1 0 .05 N V 21 "A8"
T2 -13.183000 -15.038700 1 1 0 .05 N V 21 "A6"
T2 -13.110400 -12.440600 1 1 0 .05 N V 21 "A7"
T2 -15.705800 -12.440600 1 1 0 .05 N V 21 "A5"
T2 -15.702800 -15.042100 1 1 0 .05 N V 21 "A4"
T2 -18.239300 -12.437300 1 1 0 .05 N V 21 "A3"
T2 -18.222000 -15.038700 1 1 0 .05 N V 21 "A2"
T2 -20.832900 -12.437300 1 1 0 .05 N V 21 "A1"
T2 -20.765800 -14.911700 1 1 0 .05 N V 21 "A0"
T2 -33.257900 12.536300 1 1 0 .05 N V 21 "robotdyn.com"
T2 13.057500 5.424480 1 1 0 .05 N V 21 "ICSP"
T2 -31.402800 -13.975200 1 1 0 .05 N V 21 "RESET"
T2 -33.783100 15.584800 1 1 0 .05 N V 21 "VIN"
T2 -28.356800 15.584800 1 1 0 .05 N V 21 "5V"
T2 -31.239100 15.598200 1 1 0 .05 N V 21 "GND"
T2 -26.183100 15.588200 1 1 0 .05 N V 21 "3V3"
T2 -33.260400 9.593400 1 1 0 .05 N V 21 "Mega~2560~PRO~(Embed)"
T2 14.221000 2.258720 1 1 0 .05 N V 21 "MISO"
T2 14.221000 4.544720 1 1 0 .05 N V 21 "SCK"
T2 14.221000 7.592720 1 1 0 .05 N V 21 "RESET"
T2 16.761000 7.211720 1 1 0 .05 N V 21 "GND"
T2 16.761000 4.925720 1 1 0 .05 N V 21 "MOSI"
T2 16.761000 1.750720 1 1 0 .05 N V 21 "5V"
DS 14.605 0.508 14.478 0.508 0.127 21
DS 14.478 0.508 14.351 0.508 0.127 21
DS 14.351 0.508 14.732 0.127 0.127 21
DS 14.732 0.127 14.732 0.508 0.127 21
DS 14.732 0.508 14.478 0.508 0.127 21
DS -15.5194 9.4488 -15.3924 9.4488 0.127 21
DS -34.798 -8.128 -34.798 0 0.127 21
DS -34.798 0 -27.94 0 0.127 21
DS -27.94 0 -27.94 -8.128 0.127 21
DS -27.94 -8.128 -34.798 -8.128 0.127 21
T2 -29.845000 -2.413000 1 1 0 .05 N V 21 "USB"
DP 0 0 0 0 4 0 21
Dl -22.6695 11.8491
Dl -21.2979 11.8491
Dl -21.2979 11.9253
Dl -22.6695 11.9253
DP 0 0 0 0 4 0 21
Dl -22.7457 11.7729
Dl -21.2217 11.7729
Dl -21.2217 11.8491
Dl -22.7457 11.8491
DP 0 0 0 0 4 0 21
Dl -22.8219 11.6967
Dl -21.2217 11.6967
Dl -21.2217 11.7729
Dl -22.8219 11.7729
DP 0 0 0 0 4 0 21
Dl -22.8219 11.6205
Dl -21.2217 11.6205
Dl -21.2217 11.6967
Dl -22.8219 11.6967
DP 0 0 0 0 4 0 21
Dl -21.9075 11.5443
Dl -21.2217 11.5443
Dl -21.2217 11.6205
Dl -21.9075 11.6205
DP 0 0 0 0 4 0 21
Dl -24.7269 11.4681
Dl -23.2791 11.4681
Dl -23.2791 11.5443
Dl -24.7269 11.5443
DP 0 0 0 0 4 0 21
Dl -22.6695 11.4681
Dl -21.2217 11.4681
Dl -21.2217 11.5443
Dl -22.6695 11.5443
DP 0 0 0 0 4 0 21
Dl -21.0693 11.4681
Dl -20.4597 11.4681
Dl -20.4597 11.5443
Dl -21.0693 11.5443
DP 0 0 0 0 4 0 21
Dl -20.0787 11.4681
Dl -19.4691 11.4681
Dl -19.4691 11.5443
Dl -20.0787 11.5443
DP 0 0 0 0 4 0 21
Dl -33.4137 11.3919
Dl -32.7279 11.3919
Dl -32.7279 11.4681
Dl -33.4137 11.4681
DP 0 0 0 0 4 0 21
Dl -32.1945 11.3919
Dl -31.6611 11.3919
Dl -31.6611 11.4681
Dl -32.1945 11.4681
DP 0 0 0 0 4 0 21
Dl -31.4325 11.3919
Dl -29.9085 11.3919
Dl -29.9085 11.4681
Dl -31.4325 11.4681
DP 0 0 0 0 4 0 21
Dl -29.6799 11.3919
Dl -28.0797 11.3919
Dl -28.0797 11.4681
Dl -29.6799 11.4681
DP 0 0 0 0 4 0 21
Dl -27.8511 11.3919
Dl -26.3271 11.3919
Dl -26.3271 11.4681
Dl -27.8511 11.4681
DP 0 0 0 0 4 0 21
Dl -26.0223 11.3919
Dl -24.8793 11.3919
Dl -24.8793 11.4681
Dl -26.0223 11.4681
DP 0 0 0 0 4 0 21
Dl -24.8031 11.3919
Dl -23.0505 11.3919
Dl -23.0505 11.4681
Dl -24.8031 11.4681
DP 0 0 0 0 4 0 21
Dl -22.8219 11.3919
Dl -21.2217 11.3919
Dl -21.2217 11.4681
Dl -22.8219 11.4681
DP 0 0 0 0 4 0 21
Dl -21.0693 11.3919
Dl -20.4597 11.3919
Dl -20.4597 11.4681
Dl -21.0693 11.4681
DP 0 0 0 0 4 0 21
Dl -20.0787 11.3919
Dl -19.4691 11.3919
Dl -19.4691 11.4681
Dl -20.0787 11.4681
DP 0 0 0 0 4 0 21
Dl -33.4137 11.3157
Dl -32.7279 11.3157
Dl -32.7279 11.3919
Dl -33.4137 11.3919
DP 0 0 0 0 4 0 21
Dl -32.2707 11.3157
Dl -31.6611 11.3157
Dl -31.6611 11.3919
Dl -32.2707 11.3919
DP 0 0 0 0 4 0 21
Dl -31.4325 11.3157
Dl -29.8323 11.3157
Dl -29.8323 11.3919
Dl -31.4325 11.3919
DP 0 0 0 0 4 0 21
Dl -29.6799 11.3157
Dl -28.0797 11.3157
Dl -28.0797 11.3919
Dl -29.6799 11.3919
DP 0 0 0 0 4 0 21
Dl -27.9273 11.3157
Dl -26.3271 11.3157
Dl -26.3271 11.3919
Dl -27.9273 11.3919
DP 0 0 0 0 4 0 21
Dl -26.0223 11.3157
Dl -24.9555 11.3157
Dl -24.9555 11.3919
Dl -26.0223 11.3919
DP 0 0 0 0 4 0 21
Dl -24.8031 11.3157
Dl -23.0505 11.3157
Dl -23.0505 11.3919
Dl -24.8031 11.3919
DP 0 0 0 0 4 0 21
Dl -22.8219 11.3157
Dl -21.2217 11.3157
Dl -21.2217 11.3919
Dl -22.8219 11.3919
DP 0 0 0 0 4 0 21
Dl -21.0693 11.3157
Dl -20.4597 11.3157
Dl -20.4597 11.3919
Dl -21.0693 11.3919
DP 0 0 0 0 4 0 21
Dl -20.0787 11.3157
Dl -19.4691 11.3157
Dl -19.4691 11.3919
Dl -20.0787 11.3919
DP 0 0 0 0 4 0 21
Dl -33.4137 11.2395
Dl -32.7279 11.2395
Dl -32.7279 11.3157
Dl -33.4137 11.3157
DP 0 0 0 0 4 0 21
Dl -32.2707 11.2395
Dl -31.7373 11.2395
Dl -31.7373 11.3157
Dl -32.2707 11.3157
DP 0 0 0 0 4 0 21
Dl -31.4325 11.2395
Dl -29.8323 11.2395
Dl -29.8323 11.3157
Dl -31.4325 11.3157
DP 0 0 0 0 4 0 21
Dl -29.6799 11.2395
Dl -28.0797 11.2395
Dl -28.0797 11.3157
Dl -29.6799 11.3157
DP 0 0 0 0 4 0 21
Dl -27.9273 11.2395
Dl -26.3271 11.2395
Dl -26.3271 11.3157
Dl -27.9273 11.3157
DP 0 0 0 0 4 0 21
Dl -26.0223 11.2395
Dl -25.0317 11.2395
Dl -25.0317 11.3157
Dl -26.0223 11.3157
DP 0 0 0 0 4 0 21
Dl -24.8031 11.2395
Dl -23.0505 11.2395
Dl -23.0505 11.3157
Dl -24.8031 11.3157
DP 0 0 0 0 4 0 21
Dl -22.8219 11.2395
Dl -21.2217 11.2395
Dl -21.2217 11.3157
Dl -22.8219 11.3157
DP 0 0 0 0 4 0 21
Dl -21.0693 11.2395
Dl -20.4597 11.2395
Dl -20.4597 11.3157
Dl -21.0693 11.3157
DP 0 0 0 0 4 0 21
Dl -20.0787 11.2395
Dl -19.4691 11.2395
Dl -19.4691 11.3157
Dl -20.0787 11.3157
DP 0 0 0 0 4 0 21
Dl -33.4137 11.1633
Dl -32.7279 11.1633
Dl -32.7279 11.2395
Dl -33.4137 11.2395
DP 0 0 0 0 4 0 21
Dl -32.3469 11.1633
Dl -31.8135 11.1633
Dl -31.8135 11.2395
Dl -32.3469 11.2395
DP 0 0 0 0 4 0 21
Dl -31.4325 11.1633
Dl -30.8229 11.1633
Dl -30.8229 11.2395
Dl -31.4325 11.2395
DP 0 0 0 0 4 0 21
Dl -30.5181 11.1633
Dl -29.8323 11.1633
Dl -29.8323 11.2395
Dl -30.5181 11.2395
DP 0 0 0 0 4 0 21
Dl -29.6799 11.1633
Dl -29.0703 11.1633
Dl -29.0703 11.2395
Dl -29.6799 11.2395
DP 0 0 0 0 4 0 21
Dl -28.6893 11.1633
Dl -28.0797 11.1633
Dl -28.0797 11.2395
Dl -28.6893 11.2395
DP 0 0 0 0 4 0 21
Dl -27.9273 11.1633
Dl -27.2415 11.1633
Dl -27.2415 11.2395
Dl -27.9273 11.2395
DP 0 0 0 0 4 0 21
Dl -26.9367 11.1633
Dl -26.3271 11.1633
Dl -26.3271 11.2395
Dl -26.9367 11.2395
DP 0 0 0 0 4 0 21
Dl -26.0223 11.1633
Dl -25.4127 11.1633
Dl -25.4127 11.2395
Dl -26.0223 11.2395
DP 0 0 0 0 4 0 21
Dl -24.8031 11.1633
Dl -24.1173 11.1633
Dl -24.1173 11.2395
Dl -24.8031 11.2395
DP 0 0 0 0 4 0 21
Dl -23.6601 11.1633
Dl -23.0505 11.1633
Dl -23.0505 11.2395
Dl -23.6601 11.2395
DP 0 0 0 0 4 0 21
Dl -22.8219 11.1633
Dl -22.2123 11.1633
Dl -22.2123 11.2395
Dl -22.8219 11.2395
DP 0 0 0 0 4 0 21
Dl -21.9075 11.1633
Dl -21.2217 11.1633
Dl -21.2217 11.2395
Dl -21.9075 11.2395
DP 0 0 0 0 4 0 21
Dl -21.0693 11.1633
Dl -20.4597 11.1633
Dl -20.4597 11.2395
Dl -21.0693 11.2395
DP 0 0 0 0 4 0 21
Dl -20.0787 11.1633
Dl -19.4691 11.1633
Dl -19.4691 11.2395
Dl -20.0787 11.2395
DP 0 0 0 0 4 0 21
Dl -33.4137 11.0871
Dl -32.7279 11.0871
Dl -32.7279 11.1633
Dl -33.4137 11.1633
DP 0 0 0 0 4 0 21
Dl -32.4231 11.0871
Dl -31.8135 11.0871
Dl -31.8135 11.1633
Dl -32.4231 11.1633
DP 0 0 0 0 4 0 21
Dl -31.4325 11.0871
Dl -30.8229 11.0871
Dl -30.8229 11.1633
Dl -31.4325 11.1633
DP 0 0 0 0 4 0 21
Dl -30.5181 11.0871
Dl -29.8323 11.0871
Dl -29.8323 11.1633
Dl -30.5181 11.1633
DP 0 0 0 0 4 0 21
Dl -29.6799 11.0871
Dl -29.0703 11.0871
Dl -29.0703 11.1633
Dl -29.6799 11.1633
DP 0 0 0 0 4 0 21
Dl -28.6893 11.0871
Dl -28.0797 11.0871
Dl -28.0797 11.1633
Dl -28.6893 11.1633
DP 0 0 0 0 4 0 21
Dl -27.9273 11.0871
Dl -27.2415 11.0871
Dl -27.2415 11.1633
Dl -27.9273 11.1633
DP 0 0 0 0 4 0 21
Dl -26.9367 11.0871
Dl -26.3271 11.0871
Dl -26.3271 11.1633
Dl -26.9367 11.1633
DP 0 0 0 0 4 0 21
Dl -26.0223 11.0871
Dl -25.4127 11.0871
Dl -25.4127 11.1633
Dl -26.0223 11.1633
DP 0 0 0 0 4 0 21
Dl -24.8031 11.0871
Dl -24.1173 11.0871
Dl -24.1173 11.1633
Dl -24.8031 11.1633
DP 0 0 0 0 4 0 21
Dl -23.6601 11.0871
Dl -23.0505 11.0871
Dl -23.0505 11.1633
Dl -23.6601 11.1633
DP 0 0 0 0 4 0 21
Dl -22.8219 11.0871
Dl -22.2123 11.0871
Dl -22.2123 11.1633
Dl -22.8219 11.1633
DP 0 0 0 0 4 0 21
Dl -21.9075 11.0871
Dl -21.2217 11.0871
Dl -21.2217 11.1633
Dl -21.9075 11.1633
DP 0 0 0 0 4 0 21
Dl -21.0693 11.0871
Dl -20.4597 11.0871
Dl -20.4597 11.1633
Dl -21.0693 11.1633
DP 0 0 0 0 4 0 21
Dl -20.0787 11.0871
Dl -19.4691 11.0871
Dl -19.4691 11.1633
Dl -20.0787 11.1633
DP 0 0 0 0 4 0 21
Dl -33.4137 11.0109
Dl -32.7279 11.0109
Dl -32.7279 11.0871
Dl -33.4137 11.0871
DP 0 0 0 0 4 0 21
Dl -32.4231 11.0109
Dl -31.8897 11.0109
Dl -31.8897 11.0871
Dl -32.4231 11.0871
DP 0 0 0 0 4 0 21
Dl -31.4325 11.0109
Dl -30.8229 11.0109
Dl -30.8229 11.0871
Dl -31.4325 11.0871
DP 0 0 0 0 4 0 21
Dl -30.5181 11.0109
Dl -29.8323 11.0109
Dl -29.8323 11.0871
Dl -30.5181 11.0871
DP 0 0 0 0 4 0 21
Dl -29.6799 11.0109
Dl -29.0703 11.0109
Dl -29.0703 11.0871
Dl -29.6799 11.0871
DP 0 0 0 0 4 0 21
Dl -28.6893 11.0109
Dl -28.0797 11.0109
Dl -28.0797 11.0871
Dl -28.6893 11.0871
DP 0 0 0 0 4 0 21
Dl -27.9273 11.0109
Dl -27.2415 11.0109
Dl -27.2415 11.0871
Dl -27.9273 11.0871
DP 0 0 0 0 4 0 21
Dl -26.9367 11.0109
Dl -26.3271 11.0109
Dl -26.3271 11.0871
Dl -26.9367 11.0871
DP 0 0 0 0 4 0 21
Dl -26.0223 11.0109
Dl -25.4127 11.0109
Dl -25.4127 11.0871
Dl -26.0223 11.0871
DP 0 0 0 0 4 0 21
Dl -24.8031 11.0109
Dl -24.1173 11.0109
Dl -24.1173 11.0871
Dl -24.8031 11.0871
DP 0 0 0 0 4 0 21
Dl -23.6601 11.0109
Dl -23.0505 11.0109
Dl -23.0505 11.0871
Dl -23.6601 11.0871
DP 0 0 0 0 4 0 21
Dl -22.8219 11.0109
Dl -22.2123 11.0109
Dl -22.2123 11.0871
Dl -22.8219 11.0871
DP 0 0 0 0 4 0 21
Dl -21.9075 11.0109
Dl -21.2217 11.0109
Dl -21.2217 11.0871
Dl -21.9075 11.0871
DP 0 0 0 0 4 0 21
Dl -21.0693 11.0109
Dl -20.4597 11.0109
Dl -20.4597 11.0871
Dl -21.0693 11.0871
DP 0 0 0 0 4 0 21
Dl -20.0787 11.0109
Dl -19.4691 11.0109
Dl -19.4691 11.0871
Dl -20.0787 11.0871
DP 0 0 0 0 4 0 21
Dl -33.4137 10.9347
Dl -32.7279 10.9347
Dl -32.7279 11.0109
Dl -33.4137 11.0109
DP 0 0 0 0 4 0 21
Dl -32.4993 10.9347
Dl -31.9659 10.9347
Dl -31.9659 11.0109
Dl -32.4993 11.0109
DP 0 0 0 0 4 0 21
Dl -31.4325 10.9347
Dl -30.8229 10.9347
Dl -30.8229 11.0109
Dl -31.4325 11.0109
DP 0 0 0 0 4 0 21
Dl -30.5181 10.9347
Dl -29.8323 10.9347
Dl -29.8323 11.0109
Dl -30.5181 11.0109
DP 0 0 0 0 4 0 21
Dl -29.6799 10.9347
Dl -29.0703 10.9347
Dl -29.0703 11.0109
Dl -29.6799 11.0109
DP 0 0 0 0 4 0 21
Dl -28.6893 10.9347
Dl -28.0797 10.9347
Dl -28.0797 11.0109
Dl -28.6893 11.0109
DP 0 0 0 0 4 0 21
Dl -27.9273 10.9347
Dl -27.2415 10.9347
Dl -27.2415 11.0109
Dl -27.9273 11.0109
DP 0 0 0 0 4 0 21
Dl -26.9367 10.9347
Dl -26.3271 10.9347
Dl -26.3271 11.0109
Dl -26.9367 11.0109
DP 0 0 0 0 4 0 21
Dl -26.0223 10.9347
Dl -25.4127 10.9347
Dl -25.4127 11.0109
Dl -26.0223 11.0109
DP 0 0 0 0 4 0 21
Dl -24.8031 10.9347
Dl -24.1173 10.9347
Dl -24.1173 11.0109
Dl -24.8031 11.0109
DP 0 0 0 0 4 0 21
Dl -23.6601 10.9347
Dl -23.0505 10.9347
Dl -23.0505 11.0109
Dl -23.6601 11.0109
DP 0 0 0 0 4 0 21
Dl -22.8219 10.9347
Dl -22.2123 10.9347
Dl -22.2123 11.0109
Dl -22.8219 11.0109
DP 0 0 0 0 4 0 21
Dl -21.9075 10.9347
Dl -21.2217 10.9347
Dl -21.2217 11.0109
Dl -21.9075 11.0109
DP 0 0 0 0 4 0 21
Dl -21.0693 10.9347
Dl -20.4597 10.9347
Dl -20.4597 11.0109
Dl -21.0693 11.0109
DP 0 0 0 0 4 0 21
Dl -20.0787 10.9347
Dl -19.4691 10.9347
Dl -19.4691 11.0109
Dl -20.0787 11.0109
DP 0 0 0 0 4 0 21
Dl -33.4137 10.8585
Dl -32.7279 10.8585
Dl -32.7279 10.9347
Dl -33.4137 10.9347
DP 0 0 0 0 4 0 21
Dl -32.5755 10.8585
Dl -31.7373 10.8585
Dl -31.7373 10.9347
Dl -32.5755 10.9347
DP 0 0 0 0 4 0 21
Dl -31.4325 10.8585
Dl -30.8229 10.8585
Dl -30.8229 10.9347
Dl -31.4325 10.9347
DP 0 0 0 0 4 0 21
Dl -30.5181 10.8585
Dl -29.8323 10.8585
Dl -29.8323 10.9347
Dl -30.5181 10.9347
DP 0 0 0 0 4 0 21
Dl -29.6799 10.8585
Dl -29.0703 10.8585
Dl -29.0703 10.9347
Dl -29.6799 10.9347
DP 0 0 0 0 4 0 21
Dl -28.6893 10.8585
Dl -28.0797 10.8585
Dl -28.0797 10.9347
Dl -28.6893 10.9347
DP 0 0 0 0 4 0 21
Dl -27.9273 10.8585
Dl -27.2415 10.8585
Dl -27.2415 10.9347
Dl -27.9273 10.9347
DP 0 0 0 0 4 0 21
Dl -26.9367 10.8585
Dl -26.3271 10.8585
Dl -26.3271 10.9347
Dl -26.9367 10.9347
DP 0 0 0 0 4 0 21
Dl -26.0223 10.8585
Dl -25.4127 10.8585
Dl -25.4127 10.9347
Dl -26.0223 10.9347
DP 0 0 0 0 4 0 21
Dl -24.8031 10.8585
Dl -24.1173 10.8585
Dl -24.1173 10.9347
Dl -24.8031 10.9347
DP 0 0 0 0 4 0 21
Dl -23.6601 10.8585
Dl -23.0505 10.8585
Dl -23.0505 10.9347
Dl -23.6601 10.9347
DP 0 0 0 0 4 0 21
Dl -22.8219 10.8585
Dl -22.2123 10.8585
Dl -22.2123 10.9347
Dl -22.8219 10.9347
DP 0 0 0 0 4 0 21
Dl -21.9075 10.8585
Dl -21.2217 10.8585
Dl -21.2217 10.9347
Dl -21.9075 10.9347
DP 0 0 0 0 4 0 21
Dl -21.0693 10.8585
Dl -20.4597 10.8585
Dl -20.4597 10.9347
Dl -21.0693 10.9347
DP 0 0 0 0 4 0 21
Dl -20.0787 10.8585
Dl -19.4691 10.8585
Dl -19.4691 10.9347
Dl -20.0787 10.9347
DP 0 0 0 0 4 0 21
Dl -33.4137 10.7823
Dl -32.7279 10.7823
Dl -32.7279 10.8585
Dl -33.4137 10.8585
DP 0 0 0 0 4 0 21
Dl -32.5755 10.7823
Dl -31.6611 10.7823
Dl -31.6611 10.8585
Dl -32.5755 10.8585
DP 0 0 0 0 4 0 21
Dl -31.4325 10.7823
Dl -30.8229 10.7823
Dl -30.8229 10.8585
Dl -31.4325 10.8585
DP 0 0 0 0 4 0 21
Dl -30.5181 10.7823
Dl -29.8323 10.7823
Dl -29.8323 10.8585
Dl -30.5181 10.8585
DP 0 0 0 0 4 0 21
Dl -29.6799 10.7823
Dl -29.0703 10.7823
Dl -29.0703 10.8585
Dl -29.6799 10.8585
DP 0 0 0 0 4 0 21
Dl -28.6893 10.7823
Dl -28.0797 10.7823
Dl -28.0797 10.8585
Dl -28.6893 10.8585
DP 0 0 0 0 4 0 21
Dl -27.9273 10.7823
Dl -27.2415 10.7823
Dl -27.2415 10.8585
Dl -27.9273 10.8585
DP 0 0 0 0 4 0 21
Dl -26.9367 10.7823
Dl -26.3271 10.7823
Dl -26.3271 10.8585
Dl -26.9367 10.8585
DP 0 0 0 0 4 0 21
Dl -26.0223 10.7823
Dl -25.4127 10.7823
Dl -25.4127 10.8585
Dl -26.0223 10.8585
DP 0 0 0 0 4 0 21
Dl -24.8031 10.7823
Dl -24.1173 10.7823
Dl -24.1173 10.8585
Dl -24.8031 10.8585
DP 0 0 0 0 4 0 21
Dl -23.6601 10.7823
Dl -23.0505 10.7823
Dl -23.0505 10.8585
Dl -23.6601 10.8585
DP 0 0 0 0 4 0 21
Dl -22.8219 10.7823
Dl -22.2123 10.7823
Dl -22.2123 10.8585
Dl -22.8219 10.8585
DP 0 0 0 0 4 0 21
Dl -21.9075 10.7823
Dl -21.2217 10.7823
Dl -21.2217 10.8585
Dl -21.9075 10.8585
DP 0 0 0 0 4 0 21
Dl -21.0693 10.7823
Dl -20.4597 10.7823
Dl -20.4597 10.8585
Dl -21.0693 10.8585
DP 0 0 0 0 4 0 21
Dl -20.0787 10.7823
Dl -19.4691 10.7823
Dl -19.4691 10.8585
Dl -20.0787 10.8585
DP 0 0 0 0 4 0 21
Dl -33.4137 10.7061
Dl -32.7279 10.7061
Dl -32.7279 10.7823
Dl -33.4137 10.7823
DP 0 0 0 0 4 0 21
Dl -32.6517 10.7061
Dl -31.6611 10.7061
Dl -31.6611 10.7823
Dl -32.6517 10.7823
DP 0 0 0 0 4 0 21
Dl -31.4325 10.7061
Dl -29.8323 10.7061
Dl -29.8323 10.7823
Dl -31.4325 10.7823
DP 0 0 0 0 4 0 21
Dl -29.6799 10.7061
Dl -28.0797 10.7061
Dl -28.0797 10.7823
Dl -29.6799 10.7823
DP 0 0 0 0 4 0 21
Dl -27.9273 10.7061
Dl -26.3271 10.7061
Dl -26.3271 10.7823
Dl -27.9273 10.7823
DP 0 0 0 0 4 0 21
Dl -26.0223 10.7061
Dl -25.4127 10.7061
Dl -25.4127 10.7823
Dl -26.0223 10.7823
DP 0 0 0 0 4 0 21
Dl -24.8031 10.7061
Dl -24.1173 10.7061
Dl -24.1173 10.7823
Dl -24.8031 10.7823
DP 0 0 0 0 4 0 21
Dl -23.6601 10.7061
Dl -23.0505 10.7061
Dl -23.0505 10.7823
Dl -23.6601 10.7823
DP 0 0 0 0 4 0 21
Dl -22.8219 10.7061
Dl -22.2123 10.7061
Dl -22.2123 10.7823
Dl -22.8219 10.7823
DP 0 0 0 0 4 0 21
Dl -21.9075 10.7061
Dl -21.2217 10.7061
Dl -21.2217 10.7823
Dl -21.9075 10.7823
DP 0 0 0 0 4 0 21
Dl -21.0693 10.7061
Dl -19.4691 10.7061
Dl -19.4691 10.7823
Dl -21.0693 10.7823
DP 0 0 0 0 4 0 21
Dl -33.4137 10.6299
Dl -32.7279 10.6299
Dl -32.7279 10.7061
Dl -33.4137 10.7061
DP 0 0 0 0 4 0 21
Dl -32.2707 10.6299
Dl -31.6611 10.6299
Dl -31.6611 10.7061
Dl -32.2707 10.7061
DP 0 0 0 0 4 0 21
Dl -31.4325 10.6299
Dl -29.8323 10.6299
Dl -29.8323 10.7061
Dl -31.4325 10.7061
DP 0 0 0 0 4 0 21
Dl -29.6799 10.6299
Dl -28.0797 10.6299
Dl -28.0797 10.7061
Dl -29.6799 10.7061
DP 0 0 0 0 4 0 21
Dl -27.9273 10.6299
Dl -26.3271 10.6299
Dl -26.3271 10.7061
Dl -27.9273 10.7061
DP 0 0 0 0 4 0 21
Dl -26.1747 10.6299
Dl -25.0317 10.6299
Dl -25.0317 10.7061
Dl -26.1747 10.7061
DP 0 0 0 0 4 0 21
Dl -24.8031 10.6299
Dl -24.1173 10.6299
Dl -24.1173 10.7061
Dl -24.8031 10.7061
DP 0 0 0 0 4 0 21
Dl -23.6601 10.6299
Dl -23.0505 10.6299
Dl -23.0505 10.7061
Dl -23.6601 10.7061
DP 0 0 0 0 4 0 21
Dl -22.8219 10.6299
Dl -22.2123 10.6299
Dl -22.2123 10.7061
Dl -22.8219 10.7061
DP 0 0 0 0 4 0 21
Dl -21.9075 10.6299
Dl -21.2217 10.6299
Dl -21.2217 10.7061
Dl -21.9075 10.7061
DP 0 0 0 0 4 0 21
Dl -21.0693 10.6299
Dl -19.4691 10.6299
Dl -19.4691 10.7061
Dl -21.0693 10.7061
DP 0 0 0 0 4 0 21
Dl -19.0119 10.6299
Dl -18.5547 10.6299
Dl -18.5547 10.7061
Dl -19.0119 10.7061
DP 0 0 0 0 4 0 21
Dl -33.4137 10.5537
Dl -32.7279 10.5537
Dl -32.7279 10.6299
Dl -33.4137 10.6299
DP 0 0 0 0 4 0 21
Dl -32.2707 10.5537
Dl -31.6611 10.5537
Dl -31.6611 10.6299
Dl -32.2707 10.6299
DP 0 0 0 0 4 0 21
Dl -31.4325 10.5537
Dl -29.8323 10.5537
Dl -29.8323 10.6299
Dl -31.4325 10.6299
DP 0 0 0 0 4 0 21
Dl -29.6799 10.5537
Dl -28.0797 10.5537
Dl -28.0797 10.6299
Dl -29.6799 10.6299
DP 0 0 0 0 4 0 21
Dl -27.9273 10.5537
Dl -26.3271 10.5537
Dl -26.3271 10.6299
Dl -27.9273 10.6299
DP 0 0 0 0 4 0 21
Dl -26.1747 10.5537
Dl -25.0317 10.5537
Dl -25.0317 10.6299
Dl -26.1747 10.6299
DP 0 0 0 0 4 0 21
Dl -24.8031 10.5537
Dl -24.1173 10.5537
Dl -24.1173 10.6299
Dl -24.8031 10.6299
DP 0 0 0 0 4 0 21
Dl -23.6601 10.5537
Dl -23.0505 10.5537
Dl -23.0505 10.6299
Dl -23.6601 10.6299
DP 0 0 0 0 4 0 21
Dl -22.8219 10.5537
Dl -22.2123 10.5537
Dl -22.2123 10.6299
Dl -22.8219 10.6299
DP 0 0 0 0 4 0 21
Dl -21.9075 10.5537
Dl -21.2217 10.5537
Dl -21.2217 10.6299
Dl -21.9075 10.6299
DP 0 0 0 0 4 0 21
Dl -21.0693 10.5537
Dl -19.4691 10.5537
Dl -19.4691 10.6299
Dl -21.0693 10.6299
DP 0 0 0 0 4 0 21
Dl -19.0881 10.5537
Dl -18.9357 10.5537
Dl -18.9357 10.6299
Dl -19.0881 10.6299
DP 0 0 0 0 4 0 21
Dl -18.6309 10.5537
Dl -18.4785 10.5537
Dl -18.4785 10.6299
Dl -18.6309 10.6299
DP 0 0 0 0 4 0 21
Dl -33.4137 10.4775
Dl -32.7279 10.4775
Dl -32.7279 10.5537
Dl -33.4137 10.5537
DP 0 0 0 0 4 0 21
Dl -32.2707 10.4775
Dl -31.6611 10.4775
Dl -31.6611 10.5537
Dl -32.2707 10.5537
DP 0 0 0 0 4 0 21
Dl -31.4325 10.4775
Dl -29.9085 10.4775
Dl -29.9085 10.5537
Dl -31.4325 10.5537
DP 0 0 0 0 4 0 21
Dl -29.6799 10.4775
Dl -28.1559 10.4775
Dl -28.1559 10.5537
Dl -29.6799 10.5537
DP 0 0 0 0 4 0 21
Dl -27.8511 10.4775
Dl -26.3271 10.4775
Dl -26.3271 10.5537
Dl -27.8511 10.5537
DP 0 0 0 0 4 0 21
Dl -26.1747 10.4775
Dl -25.0317 10.4775
Dl -25.0317 10.5537
Dl -26.1747 10.5537
DP 0 0 0 0 4 0 21
Dl -24.8031 10.4775
Dl -24.1173 10.4775
Dl -24.1173 10.5537
Dl -24.8031 10.5537
DP 0 0 0 0 4 0 21
Dl -23.6601 10.4775
Dl -23.0505 10.4775
Dl -23.0505 10.5537
Dl -23.6601 10.5537
DP 0 0 0 0 4 0 21
Dl -22.8219 10.4775
Dl -22.2123 10.4775
Dl -22.2123 10.5537
Dl -22.8219 10.5537
DP 0 0 0 0 4 0 21
Dl -21.9075 10.4775
Dl -21.2217 10.4775
Dl -21.2217 10.5537
Dl -21.9075 10.5537
DP 0 0 0 0 4 0 21
Dl -21.0693 10.4775
Dl -19.5453 10.4775
Dl -19.5453 10.5537
Dl -21.0693 10.5537
DP 0 0 0 0 4 0 21
Dl -19.1643 10.4775
Dl -19.0119 10.4775
Dl -19.0119 10.5537
Dl -19.1643 10.5537
DP 0 0 0 0 4 0 21
Dl -18.9357 10.4775
Dl -18.8595 10.4775
Dl -18.8595 10.5537
Dl -18.9357 10.5537
DP 0 0 0 0 4 0 21
Dl -18.7071 10.4775
Dl -18.6309 10.4775
Dl -18.6309 10.5537
Dl -18.7071 10.5537
DP 0 0 0 0 4 0 21
Dl -18.5547 10.4775
Dl -18.4023 10.4775
Dl -18.4023 10.5537
Dl -18.5547 10.5537
DP 0 0 0 0 4 0 21
Dl -33.4137 10.4013
Dl -32.7279 10.4013
Dl -32.7279 10.4775
Dl -33.4137 10.4775
DP 0 0 0 0 4 0 21
Dl -32.2707 10.4013
Dl -31.6611 10.4013
Dl -31.6611 10.4775
Dl -32.2707 10.4775
DP 0 0 0 0 4 0 21
Dl -29.6799 10.4013
Dl -29.0703 10.4013
Dl -29.0703 10.4775
Dl -29.6799 10.4775
DP 0 0 0 0 4 0 21
Dl -26.0223 10.4013
Dl -25.4127 10.4013
Dl -25.4127 10.4775
Dl -26.0223 10.4775
DP 0 0 0 0 4 0 21
Dl -24.8031 10.4013
Dl -24.1173 10.4013
Dl -24.1173 10.4775
Dl -24.8031 10.4775
DP 0 0 0 0 4 0 21
Dl -23.6601 10.4013
Dl -23.0505 10.4013
Dl -23.0505 10.4775
Dl -23.6601 10.4775
DP 0 0 0 0 4 0 21
Dl -19.1643 10.4013
Dl -19.0881 10.4013
Dl -19.0881 10.4775
Dl -19.1643 10.4775
DP 0 0 0 0 4 0 21
Dl -18.9357 10.4013
Dl -18.8595 10.4013
Dl -18.8595 10.4775
Dl -18.9357 10.4775
DP 0 0 0 0 4 0 21
Dl -18.7833 10.4013
Dl -18.6309 10.4013
Dl -18.6309 10.4775
Dl -18.7833 10.4775
DP 0 0 0 0 4 0 21
Dl -18.5547 10.4013
Dl -18.4023 10.4013
Dl -18.4023 10.4775
Dl -18.5547 10.4775
DP 0 0 0 0 4 0 21
Dl -33.4137 10.3251
Dl -31.6611 10.3251
Dl -31.6611 10.4013
Dl -33.4137 10.4013
DP 0 0 0 0 4 0 21
Dl -29.6799 10.3251
Dl -29.0703 10.3251
Dl -29.0703 10.4013
Dl -29.6799 10.4013
DP 0 0 0 0 4 0 21
Dl -26.0223 10.3251
Dl -25.4127 10.3251
Dl -25.4127 10.4013
Dl -26.0223 10.4013
DP 0 0 0 0 4 0 21
Dl -24.8031 10.3251
Dl -23.0505 10.3251
Dl -23.0505 10.4013
Dl -24.8031 10.4013
DP 0 0 0 0 4 0 21
Dl -19.1643 10.3251
Dl -19.0881 10.3251
Dl -19.0881 10.4013
Dl -19.1643 10.4013
DP 0 0 0 0 4 0 21
Dl -18.9357 10.3251
Dl -18.7071 10.3251
Dl -18.7071 10.4013
Dl -18.9357 10.4013
DP 0 0 0 0 4 0 21
Dl -18.4785 10.3251
Dl -18.4023 10.3251
Dl -18.4023 10.4013
Dl -18.4785 10.4013
DP 0 0 0 0 4 0 21
Dl -33.4137 10.2489
Dl -31.6611 10.2489
Dl -31.6611 10.3251
Dl -33.4137 10.3251
DP 0 0 0 0 4 0 21
Dl -29.6799 10.2489
Dl -29.0703 10.2489
Dl -29.0703 10.3251
Dl -29.6799 10.3251
DP 0 0 0 0 4 0 21
Dl -26.0223 10.2489
Dl -25.4127 10.2489
Dl -25.4127 10.3251
Dl -26.0223 10.3251
DP 0 0 0 0 4 0 21
Dl -24.8031 10.2489
Dl -23.0505 10.2489
Dl -23.0505 10.3251
Dl -24.8031 10.3251
DP 0 0 0 0 4 0 21
Dl -19.1643 10.2489
Dl -19.0881 10.2489
Dl -19.0881 10.3251
Dl -19.1643 10.3251
DP 0 0 0 0 4 0 21
Dl -18.9357 10.2489
Dl -18.8595 10.2489
Dl -18.8595 10.3251
Dl -18.9357 10.3251
DP 0 0 0 0 4 0 21
Dl -18.7071 10.2489
Dl -18.6309 10.2489
Dl -18.6309 10.3251
Dl -18.7071 10.3251
DP 0 0 0 0 4 0 21
Dl -18.4785 10.2489
Dl -18.4023 10.2489
Dl -18.4023 10.3251
Dl -18.4785 10.3251
DP 0 0 0 0 4 0 21
Dl -33.4137 10.1727
Dl -31.6611 10.1727
Dl -31.6611 10.2489
Dl -33.4137 10.2489
DP 0 0 0 0 4 0 21
Dl -29.6799 10.1727
Dl -29.0703 10.1727
Dl -29.0703 10.2489
Dl -29.6799 10.2489
DP 0 0 0 0 4 0 21
Dl -26.0223 10.1727
Dl -25.4127 10.1727
Dl -25.4127 10.2489
Dl -26.0223 10.2489
DP 0 0 0 0 4 0 21
Dl -24.8031 10.1727
Dl -23.0505 10.1727
Dl -23.0505 10.2489
Dl -24.8031 10.2489
DP 0 0 0 0 4 0 21
Dl -19.1643 10.1727
Dl -19.0119 10.1727
Dl -19.0119 10.2489
Dl -19.1643 10.2489
DP 0 0 0 0 4 0 21
Dl -18.9357 10.1727
Dl -18.6309 10.1727
Dl -18.6309 10.2489
Dl -18.9357 10.2489
DP 0 0 0 0 4 0 21
Dl -18.5547 10.1727
Dl -18.4023 10.1727
Dl -18.4023 10.2489
Dl -18.5547 10.2489
DP 0 0 0 0 4 0 21
Dl -33.4137 10.0965
Dl -31.7373 10.0965
Dl -31.7373 10.1727
Dl -33.4137 10.1727
DP 0 0 0 0 4 0 21
Dl -29.6799 10.0965
Dl -29.0703 10.0965
Dl -29.0703 10.1727
Dl -29.6799 10.1727
DP 0 0 0 0 4 0 21
Dl -26.0223 10.0965
Dl -25.4127 10.0965
Dl -25.4127 10.1727
Dl -26.0223 10.1727
DP 0 0 0 0 4 0 21
Dl -24.8031 10.0965
Dl -23.1267 10.0965
Dl -23.1267 10.1727
Dl -24.8031 10.1727
DP 0 0 0 0 4 0 21
Dl -19.0881 10.0965
Dl -18.9357 10.0965
Dl -18.9357 10.1727
Dl -19.0881 10.1727
DP 0 0 0 0 4 0 21
Dl -18.6309 10.0965
Dl -18.4785 10.0965
Dl -18.4785 10.1727
Dl -18.6309 10.1727
DP 0 0 0 0 4 0 21
Dl -19.0119 10.0203
Dl -18.5547 10.0203
Dl -18.5547 10.0965
Dl -19.0119 10.0965
$PAD
Sh "VIN@2" C 1.6764 1.6764 0 0 0
Dr 0.8 0 0
At STD N 00C0FFFF
.SolderMask 0
Ne 0 ""
Po -33.02 16.51
$EndPAD
$PAD
Sh "VIN@1" C 1.6764 1.6764 0 0 0
Dr 0.8 0 0
At STD N 00C0FFFF
.SolderMask 0
Ne 0 ""
Po -33.02 19.05
$EndPAD
$PAD
Sh "GND@2" C 1.6764 1.6764 0 0 0
Dr 0.8 0 0
At STD N 00C0FFFF
.SolderMask 0
Ne 0 ""
Po -30.48 16.51
$EndPAD
$PAD
Sh "GND@1" C 1.6764 1.6764 0 0 0
Dr 0.8 0 0
At STD N 00C0FFFF
.SolderMask 0
Ne 0 ""
Po -30.48 19.05
$EndPAD
$PAD
Sh "5V@1" C 1.6764 1.6764 0 0 0
Dr 0.8 0 0
At STD N 00C0FFFF
.SolderMask 0
Ne 0 ""
Po -27.94 19.05
$EndPAD
$PAD
Sh "5V@2" C 1.6764 1.6764 0 0 0
Dr 0.8 0 0
At STD N 00C0FFFF
.SolderMask 0
Ne 0 ""
Po -27.94 16.51
$EndPAD
$PAD
Sh "3V3@2" C 1.6764 1.6764 0 0 0
Dr 0.8 0 0
At STD N 00C0FFFF
.SolderMask 0
Ne 0 ""
Po -25.4 16.51
$EndPAD
$PAD
Sh "3V3@1" C 1.6764 1.6764 0 0 0
Dr 0.8 0 0
At STD N 00C0FFFF
.SolderMask 0
Ne 0 ""
Po -25.4 19.05
$EndPAD
$PAD
Sh "RST" C 1.6764 1.6764 0 0 0
Dr 0.8 0 0
At STD N 00C0FFFF
.SolderMask 0
Ne 0 ""
Po -22.86 19.05
$EndPAD
$PAD
Sh "AREF" C 1.6764 1.6764 0 0 0
Dr 0.8 0 0
At STD N 00C0FFFF
.SolderMask 0
Ne 0 ""
Po -22.86 16.51
$EndPAD
$PAD
Sh "RX" C 1.6764 1.6764 0 0 0
Dr 0.8 0 0
At STD N 00C0FFFF
.SolderMask 0
Ne 0 ""
Po -20.32 16.51
$EndPAD
$PAD
Sh "TX" C 1.6764 1.6764 0 0 0
Dr 0.8 0 0
At STD N 00C0FFFF
.SolderMask 0
Ne 0 ""
Po -20.32 19.05
$EndPAD
$PAD
Sh "D3" C 1.6764 1.6764 0 0 0
Dr 0.8 0 0
At STD N 00C0FFFF
.SolderMask 0
Ne 0 ""
Po -17.78 19.05
$EndPAD
$PAD
Sh "D5" C 1.6764 1.6764 0 0 0
Dr 0.8 0 0
At STD N 00C0FFFF
.SolderMask 0
Ne 0 ""
Po -15.24 19.05
$EndPAD
$PAD
Sh "D7" C 1.6764 1.6764 0 0 0
Dr 0.8 0 0
At STD N 00C0FFFF
.SolderMask 0
Ne 0 ""
Po -12.7 19.05
$EndPAD
$PAD
Sh "D9" C 1.6764 1.6764 0 0 0
Dr 0.8 0 0
At STD N 00C0FFFF
.SolderMask 0
Ne 0 ""
Po -10.16 19.05
$EndPAD
$PAD
Sh "D11" C 1.6764 1.6764 0 0 0
Dr 0.8 0 0
At STD N 00C0FFFF
.SolderMask 0
Ne 0 ""
Po -7.62 19.05
$EndPAD
$PAD
Sh "D13" C 1.6764 1.6764 0 0 0
Dr 0.8 0 0
At STD N 00C0FFFF
.SolderMask 0
Ne 0 ""
Po -5.08 19.05
$EndPAD
$PAD
Sh "D15" C 1.6764 1.6764 0 0 0
Dr 0.8 0 0
At STD N 00C0FFFF
.SolderMask 0
Ne 0 ""
Po -2.54 19.05
$EndPAD
$PAD
Sh "D17" C 1.6764 1.6764 0 0 0
Dr 0.8 0 0
At STD N 00C0FFFF
.SolderMask 0
Ne 0 ""
Po 0 19.05
$EndPAD
$PAD
Sh "D19" C 1.6764 1.6764 0 0 0
Dr 0.8 0 0
At STD N 00C0FFFF
.SolderMask 0
Ne 0 ""
Po 2.54 19.05
$EndPAD
$PAD
Sh "D21" C 1.6764 1.6764 0 0 0
Dr 0.8 0 0
At STD N 00C0FFFF
.SolderMask 0
Ne 0 ""
Po 5.08 19.05
$EndPAD
$PAD
Sh "D2" C 1.6764 1.6764 0 0 0
Dr 0.8 0 0
At STD N 00C0FFFF
.SolderMask 0
Ne 0 ""
Po -17.78 16.51
$EndPAD
$PAD
Sh "D4" C 1.6764 1.6764 0 0 0
Dr 0.8 0 0
At STD N 00C0FFFF
.SolderMask 0
Ne 0 ""
Po -15.24 16.51
$EndPAD
$PAD
Sh "D6" C 1.6764 1.6764 0 0 0
Dr 0.8 0 0
At STD N 00C0FFFF
.SolderMask 0
Ne 0 ""
Po -12.7 16.51
$EndPAD
$PAD
Sh "D8" C 1.6764 1.6764 0 0 0
Dr 0.8 0 0
At STD N 00C0FFFF
.SolderMask 0
Ne 0 ""
Po -10.16 16.51
$EndPAD
$PAD
Sh "D10" C 1.6764 1.6764 0 0 0
Dr 0.8 0 0
At STD N 00C0FFFF
.SolderMask 0
Ne 0 ""
Po -7.62 16.51
$EndPAD
$PAD
Sh "D12" C 1.6764 1.6764 0 0 0
Dr 0.8 0 0
At STD N 00C0FFFF
.SolderMask 0
Ne 0 ""
Po -5.08 16.51
$EndPAD
$PAD
Sh "D14" C 1.6764 1.6764 0 0 0
Dr 0.8 0 0
At STD N 00C0FFFF
.SolderMask 0
Ne 0 ""
Po -2.54 16.51
$EndPAD
$PAD
Sh "D16" C 1.6764 1.6764 0 0 0
Dr 0.8 0 0
At STD N 00C0FFFF
.SolderMask 0
Ne 0 ""
Po 0 16.51
$EndPAD
$PAD
Sh "D18" C 1.6764 1.6764 0 0 0
Dr 0.8 0 0
At STD N 00C0FFFF
.SolderMask 0
Ne 0 ""
Po 2.54 16.51
$EndPAD
$PAD
Sh "D20" C 1.6764 1.6764 0 0 0
Dr 0.8 0 0
At STD N 00C0FFFF
.SolderMask 0
Ne 0 ""
Po 5.08 16.51
$EndPAD
$PAD
Sh "D23" C 1.6764 1.6764 0 0 0
Dr 0.8 0 0
At STD N 00C0FFFF
.SolderMask 0
Ne 0 ""
Po 7.62 19.05
$EndPAD
$PAD
Sh "D25" C 1.6764 1.6764 0 0 0
Dr 0.8 0 0
At STD N 00C0FFFF
.SolderMask 0
Ne 0 ""
Po 10.16 19.05
$EndPAD
$PAD
Sh "D27" C 1.6764 1.6764 0 0 0
Dr 0.8 0 0
At STD N 00C0FFFF
.SolderMask 0
Ne 0 ""
Po 12.7 19.05
$EndPAD
$PAD
Sh "D29" C 1.6764 1.6764 0 0 0
Dr 0.8 0 0
At STD N 00C0FFFF
.SolderMask 0
Ne 0 ""
Po 15.24 19.05
$EndPAD
$PAD
Sh "D31" C 1.6764 1.6764 0 0 0
Dr 0.8 0 0
At STD N 00C0FFFF
.SolderMask 0
Ne 0 ""
Po 17.78 19.05
$EndPAD
$PAD
Sh "D30" C 1.6764 1.6764 0 0 0
Dr 0.8 0 0
At STD N 00C0FFFF
.SolderMask 0
Ne 0 ""
Po 17.78 16.51
$EndPAD
$PAD
Sh "D28" C 1.6764 1.6764 0 0 0
Dr 0.8 0 0
At STD N 00C0FFFF
.SolderMask 0
Ne 0 ""
Po 15.24 16.51
$EndPAD
$PAD
Sh "D26" C 1.6764 1.6764 0 0 0
Dr 0.8 0 0
At STD N 00C0FFFF
.SolderMask 0
Ne 0 ""
Po 12.7 16.51
$EndPAD
$PAD
Sh "D24" C 1.6764 1.6764 0 0 0
Dr 0.8 0 0
At STD N 00C0FFFF
.SolderMask 0
Ne 0 ""
Po 10.16 16.51
$EndPAD
$PAD
Sh "D22" C 1.6764 1.6764 0 0 0
Dr 0.8 0 0
At STD N 00C0FFFF
.SolderMask 0
Ne 0 ""
Po 7.62 16.51
$EndPAD
$PAD
Sh "A1" C 1.6764 1.6764 0 0 0
Dr 0.8 0 0
At STD N 00C0FFFF
.SolderMask 0
Ne 0 ""
Po -20.32 -13.97
$EndPAD
$PAD
Sh "A0" C 1.6764 1.6764 0 0 0
Dr 0.8 0 0
At STD N 00C0FFFF
.SolderMask 0
Ne 0 ""
Po -20.32 -16.51
$EndPAD
$PAD
Sh "A2" C 1.6764 1.6764 0 0 0
Dr 0.8 0 0
At STD N 00C0FFFF
.SolderMask 0
Ne 0 ""
Po -17.78 -16.51
$EndPAD
$PAD
Sh "A3" C 1.6764 1.6764 0 0 0
Dr 0.8 0 0
At STD N 00C0FFFF
.SolderMask 0
Ne 0 ""
Po -17.78 -13.97
$EndPAD
$PAD
Sh "A5" C 1.6764 1.6764 0 0 0
Dr 0.8 0 0
At STD N 00C0FFFF
.SolderMask 0
Ne 0 ""
Po -15.24 -13.97
$EndPAD
$PAD
Sh "A4" C 1.6764 1.6764 0 0 0
Dr 0.8 0 0
At STD N 00C0FFFF
.SolderMask 0
Ne 0 ""
Po -15.24 -16.51
$EndPAD
$PAD
Sh "A6" C 1.6764 1.6764 0 0 0
Dr 0.8 0 0
At STD N 00C0FFFF
.SolderMask 0
Ne 0 ""
Po -12.7 -16.51
$EndPAD
$PAD
Sh "A7" C 1.6764 1.6764 0 0 0
Dr 0.8 0 0
At STD N 00C0FFFF
.SolderMask 0
Ne 0 ""
Po -12.7 -13.97
$EndPAD
$PAD
Sh "A8" C 1.6764 1.6764 0 0 0
Dr 0.8 0 0
At STD N 00C0FFFF
.SolderMask 0
Ne 0 ""
Po -10.16 -16.51
$EndPAD
$PAD
Sh "A9" C 1.6764 1.6764 0 0 0
Dr 0.8 0 0
At STD N 00C0FFFF
.SolderMask 0
Ne 0 ""
Po -10.16 -13.97
$EndPAD
$PAD
Sh "A10" C 1.6764 1.6764 0 0 0
Dr 0.8 0 0
At STD N 00C0FFFF
.SolderMask 0
Ne 0 ""
Po -7.62 -16.51
$EndPAD
$PAD
Sh "A11" C 1.6764 1.6764 0 0 0
Dr 0.8 0 0
At STD N 00C0FFFF
.SolderMask 0
Ne 0 ""
Po -7.62 -13.97
$EndPAD
$PAD
Sh "A12" C 1.6764 1.6764 0 0 0
Dr 0.8 0 0
At STD N 00C0FFFF
.SolderMask 0
Ne 0 ""
Po -5.08 -16.51
$EndPAD
$PAD
Sh "A13" C 1.6764 1.6764 0 0 0
Dr 0.8 0 0
At STD N 00C0FFFF
.SolderMask 0
Ne 0 ""
Po -5.08 -13.97
$EndPAD
$PAD
Sh "A14" C 1.6764 1.6764 0 0 0
Dr 0.8 0 0
At STD N 00C0FFFF
.SolderMask 0
Ne 0 ""
Po -2.54 -16.51
$EndPAD
$PAD
Sh "A15" C 1.6764 1.6764 0 0 0
Dr 0.8 0 0
At STD N 00C0FFFF
.SolderMask 0
Ne 0 ""
Po -2.54 -13.97
$EndPAD
$PAD
Sh "D32" C 1.6764 1.6764 0 0 0
Dr 0.8 0 0
At STD N 00C0FFFF
.SolderMask 0
Ne 0 ""
Po 0 -16.51
$EndPAD
$PAD
Sh "D33" C 1.6764 1.6764 0 0 0
Dr 0.8 0 0
At STD N 00C0FFFF
.SolderMask 0
Ne 0 ""
Po 0 -13.97
$EndPAD
$PAD
Sh "D34" C 1.6764 1.6764 0 0 0
Dr 0.8 0 0
At STD N 00C0FFFF
.SolderMask 0
Ne 0 ""
Po 2.54 -16.51
$EndPAD
$PAD
Sh "D35" C 1.6764 1.6764 0 0 0
Dr 0.8 0 0
At STD N 00C0FFFF
.SolderMask 0
Ne 0 ""
Po 2.54 -13.97
$EndPAD
$PAD
Sh "D36" C 1.6764 1.6764 0 0 0
Dr 0.8 0 0
At STD N 00C0FFFF
.SolderMask 0
Ne 0 ""
Po 5.08 -16.51
$EndPAD
$PAD
Sh "D37" C 1.6764 1.6764 0 0 0
Dr 0.8 0 0
At STD N 00C0FFFF
.SolderMask 0
Ne 0 ""
Po 5.08 -13.97
$EndPAD
$PAD
Sh "D38" C 1.6764 1.6764 0 0 0
Dr 0.8 0 0
At STD N 00C0FFFF
.SolderMask 0
Ne 0 ""
Po 7.62 -16.51
$EndPAD
$PAD
Sh "D39" C 1.6764 1.6764 0 0 0
Dr 0.8 0 0
At STD N 00C0FFFF
.SolderMask 0
Ne 0 ""
Po 7.62 -13.97
$EndPAD
$PAD
Sh "D40" C 1.6764 1.6764 0 0 0
Dr 0.8 0 0
At STD N 00C0FFFF
.SolderMask 0
Ne 0 ""
Po 10.16 -16.51
$EndPAD
$PAD
Sh "D41" C 1.6764 1.6764 0 0 0
Dr 0.8 0 0
At STD N 00C0FFFF
.SolderMask 0
Ne 0 ""
Po 10.16 -13.97
$EndPAD
$PAD
Sh "D42" C 1.6764 1.6764 0 0 0
Dr 0.8 0 0
At STD N 00C0FFFF
.SolderMask 0
Ne 0 ""
Po 12.7 -16.51
$EndPAD
$PAD
Sh "D43" C 1.6764 1.6764 0 0 0
Dr 0.8 0 0
At STD N 00C0FFFF
.SolderMask 0
Ne 0 ""
Po 12.7 -13.97
$EndPAD
$PAD
Sh "D44" C 1.6764 1.6764 0 0 0
Dr 0.8 0 0
At STD N 00C0FFFF
.SolderMask 0
Ne 0 ""
Po 15.24 -16.51
$EndPAD
$PAD
Sh "D45" C 1.6764 1.6764 0 0 0
Dr 0.8 0 0
At STD N 00C0FFFF
.SolderMask 0
Ne 0 ""
Po 15.24 -13.97
$EndPAD
$PAD
Sh "D46" C 1.6764 1.6764 0 0 0
Dr 0.8 0 0
At STD N 00C0FFFF
.SolderMask 0
Ne 0 ""
Po 17.78 -16.51
$EndPAD
$PAD
Sh "D47" C 1.6764 1.6764 0 0 0
Dr 0.8 0 0
At STD N 00C0FFFF
.SolderMask 0
Ne 0 ""
Po 17.78 -13.97
$EndPAD
$PAD
Sh "D48" C 1.6764 1.6764 0 0 0
Dr 0.8 0 0
At STD N 00C0FFFF
.SolderMask 0
Ne 0 ""
Po 17.78 -11.43
$EndPAD
$PAD
Sh "D49" C 1.6764 1.6764 0 0 0
Dr 0.8 0 0
At STD N 00C0FFFF
.SolderMask 0
Ne 0 ""
Po 15.24 -11.43
$EndPAD
$PAD
Sh "D51" C 1.6764 1.6764 0 0 0
Dr 0.8 0 0
At STD N 00C0FFFF
.SolderMask 0
Ne 0 ""
Po 15.24 -8.89
$EndPAD
$PAD
Sh "D50" C 1.6764 1.6764 0 0 0
Dr 0.8 0 0
At STD N 00C0FFFF
.SolderMask 0
Ne 0 ""
Po 17.78 -8.89
$EndPAD
$PAD
Sh "D52" C 1.6764 1.6764 0 0 0
Dr 0.8 0 0
At STD N 00C0FFFF
.SolderMask 0
Ne 0 ""
Po 17.78 -6.35
$EndPAD
$PAD
Sh "D53" C 1.6764 1.6764 0 0 0
Dr 0.8 0 0
At STD N 00C0FFFF
.SolderMask 0
Ne 0 ""
Po 15.24 -6.35
$EndPAD
$PAD
Sh "RESET" C 1.6764 1.6764 0 0 0
Dr 0.8 0 0
At STD N 00C0FFFF
.SolderMask 0
Ne 0 ""
Po 15.24 6.35
$EndPAD
$PAD
Sh "GND@3" C 1.6764 1.6764 0 0 0
Dr 0.8 0 0
At STD N 00C0FFFF
.SolderMask 0
Ne 0 ""
Po 17.78 6.35
$EndPAD
$PAD
Sh "SCK" C 1.6764 1.6764 0 0 0
Dr 0.8 0 0
At STD N 00C0FFFF
.SolderMask 0
Ne 0 ""
Po 15.24 3.81
$EndPAD
$PAD
Sh "MISO" C 1.6764 1.6764 0 0 0
Dr 0.8 0 0
At STD N 00C0FFFF
.SolderMask 0
Ne 0 ""
Po 15.24 1.27
$EndPAD
$PAD
Sh "5V@3" C 1.6764 1.6764 0 0 0
Dr 0.8 0 0
At STD N 00C0FFFF
.SolderMask 0
Ne 0 ""
Po 17.78 1.27
$EndPAD
$PAD
Sh "MOSI" C 1.6764 1.6764 0 0 0
Dr 0.8 0 0
At STD N 00C0FFFF
.SolderMask 0
Ne 0 ""
Po 17.78 3.81
$EndPAD
$EndMODULE MEGA2560PRO-EMBED
